<?xml version="1.0" encoding="utf-8"?>
<!-- Generator: Adobe Illustrator 25.2.1, SVG Export Plug-In . SVG Version: 6.00 Build 0)  -->
<svg version="1.1" id="Layer_1" xmlns="http://www.w3.org/2000/svg" xmlns:xlink="http://www.w3.org/1999/xlink" x="0px" y="0px"
	 viewBox="0 0 24 24" style="enable-background:new 0 0 24 24;" xml:space="preserve">
<style type="text/css">
	.st0{fill:#EEEEEE;}
	.st1{fill:#D80027;}
	.st2{fill:#0052B4;}
</style>
<path class="st0" d="M12,24c6.6,0,12-5.4,12-12c0-6.6-5.4-12-12-12S0,5.4,0,12C0,18.6,5.4,24,12,24z"/>
<path class="st1" d="M24,12c0-2.5-0.8-4.8-2.1-6.9c-1.4-2-3.4-3.5-5.7-4.4v22.5c2.3-0.9,4.3-2.4,5.7-4.4C23.2,16.8,24,14.5,24,12z"
	/>
<path class="st2" d="M0,12c0,2.5,0.8,4.8,2.2,6.9s3.4,3.5,5.7,4.4V0.8C5.5,1.6,3.5,3.1,2.2,5.1C0.8,7.2,0,9.5,0,12L0,12z"/>
</svg>
