<svg width="122" height="160" viewBox="0 0 122 160"  xmlns="http://www.w3.org/2000/svg">
<path fill-rule="evenodd" clip-rule="evenodd" d="M4.09277 1.22266C2.98821 1.22266 2.09277 2.11808 2.09277 3.22265V156.778C2.09277 157.883 2.98821 158.778 4.09278 158.778H117.907C119.011 158.778 119.907 157.883 119.907 156.778V3.22266C119.907 2.11808 119.011 1.22266 117.907 1.22266H117.276H4.72397H4.09277ZM4.09277 6.39126V156.778H117.907L117.907 6.39127L105.091 31.5652C104.921 31.9004 104.576 32.1115 104.2 32.1115H17.7993C17.4232 32.1115 17.0788 31.9004 16.9082 31.5652L4.09277 6.39126ZM117.276 3.22266L4.72397 3.22266L18.4124 30.1115H103.587L117.276 3.22266Z" fill="#999999"/>
<ellipse cx="62.1137" cy="16.6663" rx="3.34079" ry="3.33333" fill="#999999"/>
<path d="M38.7893 114.372L43.3042 94.8637C43.4824 94.0335 44.1952 93.3813 45.0863 93.2627L70.334 90.6537C71.0469 90.5944 71.0469 89.5271 70.334 89.4085L45.0863 86.9774C44.1952 86.9181 43.4824 86.2659 43.3042 85.4358L38.7893 65.987C38.3734 64.3267 40.1556 62.963 41.7002 63.7338L91.0668 88.4005C92.552 89.1713 92.552 91.306 91.0668 92.0768L41.7002 116.625C40.1556 117.396 38.3734 116.032 38.7893 114.372Z" fill="#218BCB"/>
</svg>
